\relax 
\abx@aux@sortscheme{nty}
\abx@aux@refcontext{nty/global/}
\@writefile{toc}{\boolfalse {citerequest}\boolfalse {citetracker}\boolfalse {pagetracker}\boolfalse {backtracker}\relax }
\@writefile{lof}{\boolfalse {citerequest}\boolfalse {citetracker}\boolfalse {pagetracker}\boolfalse {backtracker}\relax }
\@writefile{lot}{\boolfalse {citerequest}\boolfalse {citetracker}\boolfalse {pagetracker}\boolfalse {backtracker}\relax }
\@writefile{toc}{\contentsline {section}{\numberline {1}Introduction}{2}}
\@writefile{toc}{\contentsline {section}{\numberline {2}Theory}{2}}
\newlabel{eq1}{{1}{2}}
\newlabel{eq2}{{2}{2}}
\newlabel{eq3}{{3}{2}}
\newlabel{eq4}{{4}{2}}
\abx@aux@cite{1}
\abx@aux@segm{0}{0}{1}
\abx@aux@segm{0}{0}{1}
\@writefile{toc}{\contentsline {section}{\numberline {3}Experimental Setup}{3}}
\@writefile{lof}{\contentsline {figure}{\numberline {1}{\ignorespaces Photoelectric Effect Apparatus.\textsuperscript  {\cite {1}}\relax }}{3}}
\providecommand*\caption@xref[2]{\@setref\relax\@undefined{#1}}
\newlabel{fig:setup}{{1}{3}}
\@writefile{toc}{\contentsline {section}{\numberline {4}Method}{4}}
\@writefile{toc}{\contentsline {subsection}{\numberline {4.1}Determination of Planck's Constant}{4}}
\@writefile{toc}{\contentsline {subsection}{\numberline {4.2}Current-voltage characteristic at a specific light frequency}{4}}
\expandafter \gdef \csname pgfplots@labelstyle@pgfplots:label4\endcsname {blue={\pgfkeysnovalue },every mark/.append style={fill=blue!80!black},mark={*},only marks={},error bars/x dir={both},error bars/x fixed={0.00000000000138220012},error bars/y dir={both},error bars/y fixed={0.001}}
\expandafter \gdef \csname pgfplots@show@ref@pgfplots:label4\endcsname {\begingroup \def \pgfplots@draw@image {\def \tikz@plot@handler {\pgfkeys {/pgf/plots/@handler options/.cd, start=\relax , end macro=\relax , point macro=\pgfutil@gobble , jump macro=\relax , special macro=\pgfutil@gobble , point macro=\pgf@plot@line@handler , jump=\global \let \pgf@plotstreampoint \pgf@plot@line@handler@move }\begingroup \escapechar =-1 \edef \pgfplotsplothandlername {\string \pgfplothandlerlineto }\pgfmath@smuggleone \pgfplotsplothandlername \endgroup \def \pgfplotsplothandlerLUAfactory {function(axis, pointmetainputhandler) return pgfplots.GenericPlothandler.new("\pgfplotsplothandlername ", axis,pointmetainputhandler) end}\def \pgfplotsplothandlerLUAvisualizerfactory {pgfplots.defaultPlotVisualizerFactory}}\pgfkeysdef {/pgfplots/legend image code}{\draw [/pgfplots/mesh=false,bar width=3pt,bar shift=0pt,mark repeat=2,mark phase=2,] plot coordinates { (0cm,0cm) (0.3cm,0cm) (0.6cm,0cm)};}\pgfkeysdef {/pgfplots/every legend image post}{}\pgfkeyssetvalue {/pgfplots/mark list fill}{.!80!black}\pgfkeysdef {/pgfplots/every crossref picture}{\pgfkeysalso {baseline,yshift=0.3em}}\pgfplots@show@small@legendplots {blue={\pgfkeysnovalue },every mark/.append style={fill=blue!80!black},mark={*},only marks={},error bars/x dir={both},error bars/x fixed={0.00000000000138220012},error bars/y dir={both},error bars/y fixed={0.001}}{}}\ifpgfpicture \scope [/pgfplots/every crossref picture]\pgfplots@draw@image \endscope \else \expandafter \ifx \csname tikzappendtofigurename\endcsname \relax \else \begingroup \tikzappendtofigurename {_crossref}\fi \tikz [/pgfplots/every crossref picture]{\pgfplots@draw@image }\expandafter \ifx \csname tikzappendtofigurename\endcsname \relax \else \endgroup \fi \fi \endgroup }
\expandafter \gdef \csname pgfplots@labelstyle@pgfplots:label5\endcsname {mark={none},domain={5:8.5},/utils/exec={\if 0\pgfplotsplothandlermesh@matrixinput \pgfkeysalso {/pgfplots/mesh input=lattice}\fi }}
\expandafter \gdef \csname pgfplots@show@ref@pgfplots:label5\endcsname {\begingroup \def \pgfplots@draw@image {\def \tikz@plot@handler {\pgfkeys {/pgf/plots/@handler options/.cd, start=\relax , end macro=\relax , point macro=\pgfutil@gobble , jump macro=\relax , special macro=\pgfutil@gobble , point macro=\pgf@plot@line@handler , jump=\global \let \pgf@plotstreampoint \pgf@plot@line@handler@move }\begingroup \escapechar =-1 \edef \pgfplotsplothandlername {\string \pgfplothandlerlineto }\pgfmath@smuggleone \pgfplotsplothandlername \endgroup \def \pgfplotsplothandlerLUAfactory {function(axis, pointmetainputhandler) return pgfplots.GenericPlothandler.new("\pgfplotsplothandlername ", axis,pointmetainputhandler) end}\def \pgfplotsplothandlerLUAvisualizerfactory {pgfplots.defaultPlotVisualizerFactory}}\pgfkeysdef {/pgfplots/legend image code}{\draw [/pgfplots/mesh=false,bar width=3pt,bar shift=0pt,mark repeat=2,mark phase=2,] plot coordinates { (0cm,0cm) (0.3cm,0cm) (0.6cm,0cm)};}\pgfkeysdef {/pgfplots/every legend image post}{}\pgfkeyssetvalue {/pgfplots/mark list fill}{.!80!black}\pgfkeysdef {/pgfplots/every crossref picture}{\pgfkeysalso {baseline,yshift=0.3em}}\pgfplots@show@small@legendplots {mark={none},domain={5:8.5},/utils/exec={\if 0\pgfplotsplothandlermesh@matrixinput \pgfkeysalso {/pgfplots/mesh input=lattice}\fi }}{}}\ifpgfpicture \scope [/pgfplots/every crossref picture]\pgfplots@draw@image \endscope \else \expandafter \ifx \csname tikzappendtofigurename\endcsname \relax \else \begingroup \tikzappendtofigurename {_crossref}\fi \tikz [/pgfplots/every crossref picture]{\pgfplots@draw@image }\expandafter \ifx \csname tikzappendtofigurename\endcsname \relax \else \endgroup \fi \fi \endgroup }
\expandafter \gdef \csname pgfplots@labelstyle@pgfplots:label3\endcsname {blue={\pgfkeysnovalue },every mark/.append style={fill=blue!80!black},mark={*},only marks={},error bars/x dir={both},error bars/x fixed={0.1},error bars/y dir={both},error bars/y fixed={0.2}}
\expandafter \gdef \csname pgfplots@show@ref@pgfplots:label3\endcsname {\begingroup \def \pgfplots@draw@image {\def \tikz@plot@handler {\pgfkeys {/pgf/plots/@handler options/.cd, start=\relax , end macro=\relax , point macro=\pgfutil@gobble , jump macro=\relax , special macro=\pgfutil@gobble , point macro=\pgf@plot@line@handler , jump=\global \let \pgf@plotstreampoint \pgf@plot@line@handler@move }\begingroup \escapechar =-1 \edef \pgfplotsplothandlername {\string \pgfplothandlerlineto }\pgfmath@smuggleone \pgfplotsplothandlername \endgroup \def \pgfplotsplothandlerLUAfactory {function(axis, pointmetainputhandler) return pgfplots.GenericPlothandler.new("\pgfplotsplothandlername ", axis,pointmetainputhandler) end}\def \pgfplotsplothandlerLUAvisualizerfactory {pgfplots.defaultPlotVisualizerFactory}}\pgfkeysdef {/pgfplots/legend image code}{\draw [/pgfplots/mesh=false,bar width=3pt,bar shift=0pt,mark repeat=2,mark phase=2,] plot coordinates { (0cm,0cm) (0.3cm,0cm) (0.6cm,0cm)};}\pgfkeysdef {/pgfplots/every legend image post}{}\pgfkeyssetvalue {/pgfplots/mark list fill}{.!80!black}\pgfkeysdef {/pgfplots/every crossref picture}{\pgfkeysalso {baseline,yshift=0.3em}}\pgfplots@show@small@legendplots {blue={\pgfkeysnovalue },every mark/.append style={fill=blue!80!black},mark={*},only marks={},error bars/x dir={both},error bars/x fixed={0.1},error bars/y dir={both},error bars/y fixed={0.2}}{}}\ifpgfpicture \scope [/pgfplots/every crossref picture]\pgfplots@draw@image \endscope \else \expandafter \ifx \csname tikzappendtofigurename\endcsname \relax \else \begingroup \tikzappendtofigurename {_crossref}\fi \tikz [/pgfplots/every crossref picture]{\pgfplots@draw@image }\expandafter \ifx \csname tikzappendtofigurename\endcsname \relax \else \endgroup \fi \fi \endgroup }
\expandafter \gdef \csname pgfplots@labelstyle@pgfplots:label2\endcsname {red={\pgfkeysnovalue },every mark/.append style={fill=red!80!black},mark={square*},only marks={},error bars/x dir={both},error bars/x fixed={0.1},error bars/y dir={both},error bars/y fixed={0.2}}
\expandafter \gdef \csname pgfplots@show@ref@pgfplots:label2\endcsname {\begingroup \def \pgfplots@draw@image {\def \tikz@plot@handler {\pgfkeys {/pgf/plots/@handler options/.cd, start=\relax , end macro=\relax , point macro=\pgfutil@gobble , jump macro=\relax , special macro=\pgfutil@gobble , point macro=\pgf@plot@line@handler , jump=\global \let \pgf@plotstreampoint \pgf@plot@line@handler@move }\begingroup \escapechar =-1 \edef \pgfplotsplothandlername {\string \pgfplothandlerlineto }\pgfmath@smuggleone \pgfplotsplothandlername \endgroup \def \pgfplotsplothandlerLUAfactory {function(axis, pointmetainputhandler) return pgfplots.GenericPlothandler.new("\pgfplotsplothandlername ", axis,pointmetainputhandler) end}\def \pgfplotsplothandlerLUAvisualizerfactory {pgfplots.defaultPlotVisualizerFactory}}\pgfkeysdef {/pgfplots/legend image code}{\draw [/pgfplots/mesh=false,bar width=3pt,bar shift=0pt,mark repeat=2,mark phase=2,] plot coordinates { (0cm,0cm) (0.3cm,0cm) (0.6cm,0cm)};}\pgfkeysdef {/pgfplots/every legend image post}{}\pgfkeyssetvalue {/pgfplots/mark list fill}{.!80!black}\pgfkeysdef {/pgfplots/every crossref picture}{\pgfkeysalso {baseline,yshift=0.3em}}\pgfplots@show@small@legendplots {red={\pgfkeysnovalue },every mark/.append style={fill=red!80!black},mark={square*},only marks={},error bars/x dir={both},error bars/x fixed={0.1},error bars/y dir={both},error bars/y fixed={0.2}}{}}\ifpgfpicture \scope [/pgfplots/every crossref picture]\pgfplots@draw@image \endscope \else \expandafter \ifx \csname tikzappendtofigurename\endcsname \relax \else \begingroup \tikzappendtofigurename {_crossref}\fi \tikz [/pgfplots/every crossref picture]{\pgfplots@draw@image }\expandafter \ifx \csname tikzappendtofigurename\endcsname \relax \else \endgroup \fi \fi \endgroup }
\expandafter \gdef \csname pgfplots@labelstyle@pgfplots:label1\endcsname {brown!60!black={\pgfkeysnovalue },every mark/.append style={fill=brown!80!black},mark={otimes*},only marks={},error bars/x dir={both},error bars/x fixed={0.1},error bars/y dir={both},error bars/y fixed={0.2}}
\expandafter \gdef \csname pgfplots@show@ref@pgfplots:label1\endcsname {\begingroup \def \pgfplots@draw@image {\def \tikz@plot@handler {\pgfkeys {/pgf/plots/@handler options/.cd, start=\relax , end macro=\relax , point macro=\pgfutil@gobble , jump macro=\relax , special macro=\pgfutil@gobble , point macro=\pgf@plot@line@handler , jump=\global \let \pgf@plotstreampoint \pgf@plot@line@handler@move }\begingroup \escapechar =-1 \edef \pgfplotsplothandlername {\string \pgfplothandlerlineto }\pgfmath@smuggleone \pgfplotsplothandlername \endgroup \def \pgfplotsplothandlerLUAfactory {function(axis, pointmetainputhandler) return pgfplots.GenericPlothandler.new("\pgfplotsplothandlername ", axis,pointmetainputhandler) end}\def \pgfplotsplothandlerLUAvisualizerfactory {pgfplots.defaultPlotVisualizerFactory}}\pgfkeysdef {/pgfplots/legend image code}{\draw [/pgfplots/mesh=false,bar width=3pt,bar shift=0pt,mark repeat=2,mark phase=2,] plot coordinates { (0cm,0cm) (0.3cm,0cm) (0.6cm,0cm)};}\pgfkeysdef {/pgfplots/every legend image post}{}\pgfkeyssetvalue {/pgfplots/mark list fill}{.!80!black}\pgfkeysdef {/pgfplots/every crossref picture}{\pgfkeysalso {baseline,yshift=0.3em}}\pgfplots@show@small@legendplots {brown!60!black={\pgfkeysnovalue },every mark/.append style={fill=brown!80!black},mark={otimes*},only marks={},error bars/x dir={both},error bars/x fixed={0.1},error bars/y dir={both},error bars/y fixed={0.2}}{}}\ifpgfpicture \scope [/pgfplots/every crossref picture]\pgfplots@draw@image \endscope \else \expandafter \ifx \csname tikzappendtofigurename\endcsname \relax \else \begingroup \tikzappendtofigurename {_crossref}\fi \tikz [/pgfplots/every crossref picture]{\pgfplots@draw@image }\expandafter \ifx \csname tikzappendtofigurename\endcsname \relax \else \endgroup \fi \fi \endgroup }
\@writefile{toc}{\contentsline {section}{\numberline {5}Results}{5}}
\newlabel{eq5}{{5}{5}}
\newlabel{pgfplots:label4}{{\expandafter\protect\csname pgfplots@show@ref@pgfplots:label4\endcsname}{5}}
\newlabel{pgfplots:label5}{{\expandafter\protect\csname pgfplots@show@ref@pgfplots:label5\endcsname}{5}}
\newlabel{fig:graph1}{{\caption@xref {fig:graph1}{ on input line 163}}{5}}
\newlabel{pgfplots:label3}{{\expandafter\protect\csname pgfplots@show@ref@pgfplots:label3\endcsname}{6}}
\newlabel{pgfplots:label2}{{\expandafter\protect\csname pgfplots@show@ref@pgfplots:label2\endcsname}{6}}
\newlabel{pgfplots:label1}{{\expandafter\protect\csname pgfplots@show@ref@pgfplots:label1\endcsname}{6}}
\newlabel{fig:graph2}{{\caption@xref {fig:graph2}{ on input line 234}}{6}}
\newlabel{eq6}{{6}{6}}
\@writefile{toc}{\contentsline {section}{\numberline {6}Discussion}{7}}
\@writefile{toc}{\contentsline {section}{\numberline {7}Conclusion}{7}}
\@writefile{toc}{\contentsline {section}{\numberline {8}Appendix 1}{8}}
\@writefile{lot}{\contentsline {table}{\numberline {1}{\ignorespaces Wavelength and frequency of the light.\relax }}{8}}
\@writefile{lot}{\contentsline {table}{\numberline {2}{\ignorespaces Measured electric potential.\relax }}{8}}
\@writefile{lot}{\contentsline {table}{\numberline {3}{\ignorespaces Calculated residuals.\relax }}{8}}
\@writefile{lot}{\contentsline {table}{\numberline {4}{\ignorespaces Calculated values from and for least squares computations.\relax }}{9}}
\@writefile{toc}{\contentsline {section}{\numberline {9}Appendix 2}{10}}
\bibcite{1}{1}
\@writefile{toc}{\contentsline {section}{References}{12}}
